%YAML 1.1
%TAG !u! tag:unity3d.com,2011:
--- !u!114 &11400000
MonoBehaviour:
  m_ObjectHideFlags: 0
  m_CorrespondingSourceObject: {fileID: 0}
  m_PrefabInstance: {fileID: 0}
  m_PrefabAsset: {fileID: 0}
  m_GameObject: {fileID: 0}
  m_Enabled: 1
  m_EditorHideFlags: 0
  m_Script: {fileID: 11500000, guid: 82c1f790ec595114facfffa2029aef36, type: 3}
  m_Name: Medal
  m_EditorClassIdentifier: 
  id: 28
  name: Medal
  medalIcon: {fileID: 21300066, guid: 038bf9e817f59b149964928d021e0f70, type: 3}
  difficulty: 25
  customDescription: 
