%YAML 1.1
%TAG !u! tag:unity3d.com,2011:
--- !u!114 &11400000
MonoBehaviour:
  m_ObjectHideFlags: 0
  m_CorrespondingSourceObject: {fileID: 0}
  m_PrefabInstance: {fileID: 0}
  m_PrefabAsset: {fileID: 0}
  m_GameObject: {fileID: 0}
  m_Enabled: 1
  m_EditorHideFlags: 0
  m_Script: {fileID: 11500000, guid: 82c1f790ec595114facfffa2029aef36, type: 3}
  m_Name: A Medal With A Long Name
  m_EditorClassIdentifier: 
  id: 52345
  name: A Medal With A Long Name
  medalIcon: {fileID: 518651677979680353, guid: 577bfc6c39d626b4ba9b09a21490cd66,
    type: 3}
  difficulty: 0
  customDescription: A medal with a long name that will scroll when unlocked.
