%YAML 1.1
%TAG !u! tag:unity3d.com,2011:
--- !u!114 &11400000
MonoBehaviour:
  m_ObjectHideFlags: 0
  m_CorrespondingSourceObject: {fileID: 0}
  m_PrefabInstance: {fileID: 0}
  m_PrefabAsset: {fileID: 0}
  m_GameObject: {fileID: 0}
  m_Enabled: 1
  m_EditorHideFlags: 0
  m_Script: {fileID: 11500000, guid: 82c1f790ec595114facfffa2029aef36, type: 3}
  m_Name: Medal 2
  m_EditorClassIdentifier: 
  id: 52344
  name: Did I Unlock This...? Or...
  medalIcon: {fileID: 21300000, guid: a9817d80051a206469b8b2532d47226b, type: 3}
  difficulty: 2
  customDescription: A secret medal unlocked via the middle button. Secret medals
    behave same as the regular medals, but the details are hidden to the player.
